{"_id":{"$oid":"5e52c8ab4692cea83b2f4470"},"source":"anywhere","type":"emom","time":"5:00","section":"skill","movements":[{"movement":"handstand walk","type":"distance","distance":{"f": [10]},"units":"m"}]},
{"_id":{"$oid":"5e52c8ab4692cea83b2f4471"},"source":"anywhere","type":"for time","section":"wod","movements":[{"movement":"wall ball","type":"reps","reps":[150]}},
{"_id":{"$oid":"5e764509b35169345449beca"},"movements": ["movement":"GHD situps","reps":[30]],"type":"reps"},
{"_id":{"$oid":"5e764509b35169345449bec9"},"movement":"GHD hip extensions","reps":[30],"type":"reps"},{"_id":{"$oid":"5e764509b35169345449bec8"},"movement":"hollow rocks","reps":[60],"type":"reps"},{"_id":{"$oid":"5e764509b35169345449bec7"},"movement":"superman rocks","reps":[60],"type":"reps"}]}
{"_id":{"$oid":"5e52ccb84692cea83b2f4475"},
"type":"on the minute","time":"6:00","section":"skill","every":"1:30",
"movements":[{"movement":"handstand push-up","type":"reps","reps":[1]}]}
{"_id":{"$oid":"5e52cd414692cea83b2f4476"},"source":"comptrain","name":"Beast Builder Benchmark",
  "type":"on the minute","every":"3:00","time":"9:00","sets":3,"section":"wod",
  "notes":"3 minute of macho mans, 3 minute rest, 3 minutes of macho mans. Macho man is 3 power cleans + 3 front squats + 3 push jerks. pick up ladder after 3 minute rest where stopped in first 3 minute round",
  "movements":[{"movement":"macho man","type":"reps","weight":{"f": [85]},
    "units":"lbs","reps":[3]},
    {"movement":"macho man","type":"reps","weight":{"f":[95]},"units":"lbs","reps":[3]},
    {"movement":"macho man","type":"reps","weight":{"f":[105]},"units":"lbs","reps":[3]},
    {"movement":"macho man","type":"reps","weight":{"f":[125]},"units":"lbs","reps":[3]}]}
{"_id":{"$oid":"5e52ce684692cea83b2f4477"},
"source":"comptrain","section":"wod","type":"for time",
"notes":"do 3 rounds of 15 cal assault bike + 15 chest to bar pull ups",
"movements":[{"movement":"cluster","type":"reps","reps":[15],"weight":{"f":[43]},"units":"kg"},
  {"type":"rounds","rounds":3,"movements":[{"movement":"assault bike","type":"cals","cals":[{"f":15}]},
  {"movement":"c2b pull ups","type":"reps","reps":[15]}]},
  {"movement":"cluster","type":"reps","reps":[15],"weight":{"f":[43]},"unit":"kg"}]}
{"_id":{"$oid":"5e52d5344692cea83b2f447b"},
"source":"anywhere","section":"barbell","type":"emom","time":"10:00","notes":"1 snatch + 2 OH squat",
"movements":[{"movement":"snatch","type":"reps","reps":[1]},{"movement":"OHS","type":"reps","reps":[2]}]}
{"_id":{"$oid":"5e52d7334692cea83b2f447e"},
"source":"comptrain","section":"skill","type":"rep","movement":"strict handstand push-up","reps":[50],
"time":"5:00","notes":"5 minute time cap"}
{"_id":{"$oid":"5e52d7af4692cea83b2f4480"},"section":"wod","type":"amrap",
  "movements":[{"movement":"barbell-facing burpees","reps":[8],"type":"reps"},
    {"type":"reps","reps":[25],"movement":"double unders"}],"time":"12:00"}
{"_id":{"$oid":"5e5387f44692cea83b2f4482"},"section":"warmup","type":"emom",
  "time":"10:00","notes":"every minute do 5 reps of the 3 movements",
  "movements":[{"movement":"burpee","type":"reps","reps":[5]},
  {"movement":"ring swing","type":"reps","reps":[5]},{"movement":"air squat","type":"reps","reps":[5]}]}
{"_id":{"$oid":"5e53888e4692cea83b2f4483"},"section":"barbell","source":"anywhere","type":"emom",
  "time":"10:00","notes":"1 snatch pull + 6 second eccentric","movements": ["movement":"snatch pull"}]
{"_id":{"$oid":"5e53896e4692cea83b2f4484"},"section":"barbell","source":"anywhere",
  "type":"emom","time":"15:00","notes":"build to heavy. each minute link the 3 movements without reset.","movements": [{"movement":"power snatch"}, {"movement": "hang squat snatch"}, {"movement": "OHS"}]
{"_id":{"$oid":"5e543d444692cea83b2f4488"},"source":"comptrain","section":"wod","name":"barbara","type":"rounds for time","rounds":5,"movements":[{"movement":"pull-up","type":"reps","reps":[20]},{"movement":"push-up","type":"reps","reps":[30]},{"movement":"sit-up","type":"reps","reps":[40]},{"movement":"air squat","type":"reps","reps":[50]},{"movement":"rest","type":"time","time":"3:00"}]}
{"_id":{"$oid":"5e543f504692cea83b2f4489"},"source":"comptrain",
  "section":"accessory","type":"sets","sets":3,"movements":[
    {"movement":"kettlebell cross body carry left","type":"distance","distance":{"f":[50]},"units":"ft"},
      {"movement":"kettlebetll cross body carry right","type":"distance","distance":{"f": [50]},"units":"ft"},
        {"movement":"dumbbell side plank rotation left","reps":[10],"type":"reps"},
          {"movement":"dumbbell side plank rotation right","reps":[10],"type":"reps"},
            {"movement":"l-sit","type":"time","time":"max"},{"movement":"rest","time":"2:00","type":"time"}]}
{"_id":{"$oid":"5e5441164692cea83b2f448b"},"section":"warmup","source":"anywhere","type":"rounds",
  "rounds":3,"movements":[{"movement":"kip swing","type":"reps","reps":[5]},
  {"movement":"air squat","type":"reps","reps":10},{"movement":"hollow rock","type":"reps","reps":[15]}]}
{"_id":{"$oid":"5e54419c4692cea83b2f448c"},"section":"skill","source":"anywhere","type":"sets",
  "sets":5,"movements":[{"movement":"OHS","type":"reps","reps":[5]}]}
{"_id":{"$oid":"5e5442904692cea83b2f448e"},"type":"emom","time":"20:00",
  "source":"anywhere","section":"wod","notes":"emom to failure. after 5 minutes increase to 6 reps of each, after 10, to 7",
  "movements":[{"movement":"goblet thruster","type":"reps","reps":[5],"weight":{"f": [16]},"unit":"kg"},
    {"movement":"kettlebell swing","type":"reps","reps":[5],"weight":{"f": [16]},"unit":"kg"},
      {"movement":"c2b pull-ups","type":"reps","reps":[5]}]}
{"_id":{"$oid":"5e5443694692cea83b2f448f"},"source":"anywhere","type":"sets","section":"skill","sets":5,
  "movements":[{"movement":"deadlift","type":"reps","reps":[5]}]}
{"_id":{"$oid":"5e62ac0d6c58c63cd84ff4ba"},"movements":[{
  "movements":[{"type":"cals","movement":"assault bike","cals":{"f": [15]}},
  {"type":"reps","movement":"burpee box jumps","reps":[15]},
  {"type":"distance","movement":"shuttle run","distance":{"f": [10]},"units":"m"}],
  "_id":{"$oid":"5e62ac0d6c58c63cd84ff4bc"},"type":"amrap","time":"4:00"},
  {"_id":{"$oid":"5e62ac0d6c58c63cd84ff4bb"},"type":"time","movement":"rest","time":"4:00"}],
  "source":"comptrain","section":"wod","type":"rounds","rounds":2,"__v":0}
{"_id":{"$oid":"5e77a73958bd066821ee7879"},"tags":[],"source":"linchpin","section":"wod",
  "type":"rounds for time","movement":"","rounds":3,"movements":
  [{"_id":{"$oid":"5e77a73958bd066821ee787c"},"type":"distance","movement":"shuttle run","distance":{"f": [200]},"units":"m"},
    {"_id":{"$oid":"5e77a73958bd066821ee787b"},"type":"reps","movement":"burpees","reps":[15]},
    {"_id":{"$oid":"5e77a73958bd066821ee787a"},"type":"reps","movement":"dumbbell thrusters","reps":[15]}],"__v":0}
{"_id":{"$oid":"5e77aadf52866068e1484e0c"},"tags":[],"source":"linchpin","section":"wod",
  "type":"rounds for time","movement":"","rounds":2,
  "movements":[{"_id":{"$oid":"5e77aadf52866068e1484e10"},"type":"reps","movement":"double-unders","reps":[100]},
  {"_id":{"$oid":"5e77aadf52866068e1484e0f"},"type":"reps","movement":"dumbbell deadlifts","reps":[50]},
  {"_id":{"$oid":"5e77aadf52866068e1484e0e"},"type":"reps","movement":"sit-ups","reps":[50]},
  {"_id":{"$oid":"5e77aadf52866068e1484e0d"},"type":"cals","movement":"rowing","rounds":"","distance":null,"cals":{"m": [50],"f": [35]}}],"__v":0}
{"_id":{"$oid":"5e77ab9052866068e1484e11"},"tags":[],"source":"linchpin","section":"wod",
  "type":"rounds for time","movements":[{"_id":{"$oid":"5e77ab9052866068e1484e14"},
    "type":"distance","movement":"dumbbell farmer's carry","distance":{"f": [50]},"units":"m"},
      {"_id":{"$oid":"5e77ab9052866068e1484e13"},"type":"reps","movement":"chest-to-bar pull-ups","reps":[12]},
      {"_id":{"$oid":"5e77ab9052866068e1484e12"},"type":"distance","movement":"dumbbell lunch","distance":{"f": [10]},
      "units":"m"}],"__v":0}
{"_id":{"$oid":"5e791e486f6ef87cb0a806e7"},"created":{"$date":"2020-03-23T20:36:03.853Z"},
"tags":[],"type":"rounds","units":"","section":"wod","rounds":3,
  "movements":[
    {"_id":{"$oid":"5e791e486f6ef87cb0a806e9"},"type":"reps","units":"",
      "movement":"ring muscle-ups","reps":[9,7,5]},{"_id":{"$oid":"5e791e486f6ef87cb0a806e8"},
        "type":"reps","weight":{"f": [95], "m": [135]},"units":"lbs","movement":"squat snatch","reps":[9,7,5]}],"name":"Amanda","__v":0}
